{
    "LoggerBufferSize": "100",
    "LoggerStringSize": "100",
    "Win32OutputDebugStringLogging": "0",
    "fileLogging": "0",
    "filenameToLogTo": "log.log",
    "stdCoutLogging": "1",
    "stdErrorLogging": "0",
    "formatTime": "1"
}
