{
    "_password": "",
    "_certificateChainFilename": "user.crt",
    "_privateKeyFilename": "user.key",
    "_tmpDHFile": "dh2048.pem",
    "_sshEncryptionTypes": "TLS",
    "ITransportInitializationParameters": {
        "_listenaddress": "",
        "outgoingPortApplicationLayerAddress": "443",
        "incomingPortApplicationLayerAddress": "443",
        "queue_length": "128",
        "logLength": "10000",
        "timerTimeout": "10",
        "idleTimeout": "10",
        "MaxClients": "100000",
        "ipv6": "true",
        "closeConnectionOnZeroOutput": "true",
        "incomingReadWriteBufferSize": "100"
    }
}
